;An SMW Central Production - "Mountain Map: Void Mix" - SNN

#SPC
{
	#author "S.N.N."
	#comment "Abstract/Dream theme 1"
	#game "SMW Central Production 2"
}

#samples
{
	#default
	#AMM
	#sky_and_dream
}

;(192 / 16) + (192 / 32) = 18
;(192 / 8) + (192 / 32) = 30
;(192 / 8) + (192 / 16) + (192 / 32) = 42
#0 @9 $ED $4C $ED v120 w160 t57
$EF $FF $20 $20 $F1 $07 $35 $01
y10
o5
(1)[<a=18r32>d=18r32f=18r32<a=18r32>d=18r32f=18r32<a=18r32>d=18r32]2
/
y10
(1)10
(2)[<g=18r32>c=18r32e=18r32<g=18r32>c=18r32e=18r32<g=18r32>c=18r32]1
(1)3
(2)1
(1)1

r1^2
v110 y14 d=18r16
v130 y13 d=18r16
v140 y12 d=18r16
v150 y11 d=18r16
v170 y10 d=18r16
     y9 d=18r16
v150 y8 d=18r16
v140 y7 d=18r16
v130 y6 d=18r16
v110 y5 d=18 r1
t62

y10
v150 @9
o4
(3)[d=30 d32d32d32d8r8d4d4]1
f=30 f32f32f32f8r8g4f4
(3)1
f=30 f32f32f32d=30 d32d32d32<a=30 a32a32a32>c=30 c32c32c32
d=30 d32d32d32d4d4d4
f=30 f32f32f32f8r8g=30 g32g32g32g8r8
d=30 d32d32d32d=30 d32d32d32d=30 d32d32d32d=30 d32d32d32
> t57
@9 $ED $4C $ED v120
(1)4

<

v130 y7 a=18r32
v150 y8 a=18r32
v175 y9 a=18r32
v200 y10 a=18r32
v175 y11 a=18r32
v150 y12 a=18r32
v130 y13 a=18r32
v100 y14 a=18r32

#1 @9 $ED $4C $ED v90

y10
o5
r16
<a=18r32>d=18r32f=18r32<a=18r32>d=18r32f=18r32<a=18r32>d=18r32
<a=18r32>d=18r32f=18r32<a=18r32>d=18r32f=18r32<a=18r32>d16
/
r16 y10
(1)10
(2)1
(1)3
(2)1
(1)1
[r1]3 r2^4^8^16^32

v150 @9
o3a=30 a32a32a32a8r8a4a4
>c=30 c32c32c32c8r8d4c4
<a=30 a32a32a32a8r8a4a4
>c=30 c32c32c32<a=30 a32a32a32e=30 e32e32e32g=30 g32g32g32
a=30 a32a32a32a4a4a4
>c=30 c32c32c32c8r8d=30 d32d32d32d8r8
<a=30 a32a32a32a=30 a32a32a32a=30 a32a32a32a=30 a32a32a32
r1^16
@9 $ED $4C $ED v90
>>

(1)3
[r1]10

#2 

r4^4^2 
r1
/ @0 y10
p30,80
o3
g64$DD$01$06$A1^16^32^64
>d8r8f8
d64$DD$01$06$A8^8^16^32^64
c4
<a8>d8c4d4r4

e64$DD$01$06$A9^16^32^64
d8
e64$DD$01$06$A9^16^32^64
d8r8
<g8a8>c8

$E8$D0$20 d64$DD$01$FF$A0^2^4^8^16^32^64

r2  v180
@0 <
(20)[y13 >a16< y7 a16> y13 a16< y7 a16r2]1
(25)[y13 >a16< y7 a16r8> y13 a16< y7 a16r4^8]1 r2
(20)1
(25)

y10
@13
>a=18 r32a=18 r32a=18 r32a=18 r2^32
>d=18 r32d=18 r32d=18 r32d=18 r2^32
e=18 r32e=18 r32e=18 r32e8^=18 r32c=18 r4^32
d=18 r32d=18 r32d=18 r32d=18 r2^32
@0
v175
o3a=18 r32a=18 r32a=18 r32a=18 r32>a16<a16o5d16r16<a16<a16d16r16
>d=18 r32d=18 r32d=18 r32d=18 r32>d16<a16<a16r16>a16<a16d16r16
>e=18 r32e=18 r32e=18 r32e8^=18 r32<f=18 r32o5d16r16o3a16r16
>d=18 r32d=18 r32d=18 r32d=18 r32>d16<a16<a16r16>a16<a16d16r2^16
[y13 >a16< y7 a16> y13 a16< y7 a16r2
 y13 >a16< y7 a16 r8> y13 a16< y17 a16r2^4^8]2
[y13 >a16< y7 a16> y13 a16< y7 a16r2^4]7
> y13 a16< y7 a16> y13 a16< y7 a16r4

y10 v190
g64$DD$01$06$A1^16^32^64
>d8r8f8
d64$DD$01$06$A8^2^4^8^16^32^64^2
d1
[r1]10

#3 

[r1]2 / [r1]8 o5
@13 v180
y11
<
[f=18 r32]4   r2
[a=18 r32]4   r2
>
[c=18 r32]3 c=42 r32 < a=18 r4^32
[a=18 r32]4 r2
<
@0
[f=18 r32]4 r2
[a=18 r32]4 r2
>
[c=18 r32]3 c=42 r32 < a=18 r4^32
[a=18 r32]4 [r1]4 r2
@6 o4 v180
a8r8a8>d8e4f4
c4d8<a4^8r8g8
a8r8a8>c8d4<g4
a1
a8r8a8>d8e4f4
g2a4f8e8
d1^2^4
r1^4
o3
$E8$E0$20 a64$DD$01$FF$9D^2^4^8^16^32^64^1^1
[r1]10

#7 

[r1]2 / [r1]8 o4
@13 v180
y11
[d=18 r32]4 r2
[f=18 r32]4 r2
[a=18 r32]3 a=42 r32 f=18 r4^32
[f=18 r32]4 r2
@0
<
[d=18 r32]4 r2
[f=18 r32]4 r2
[a=18 r32]3 a8^=18 r4^8^32
[f=18 r32]4 [r1]4 r2
@6 v180 p5,55
o3
a8r8a8>d8e4f4
c4d8<a4^8r8g8
a8r8a8>c8d4<g4
a1
a8r8a8>d8e4f4
g2a2
d1^2^4
r1^4
< p5,5
$E8$E0$20 d64$DD$01$FF$98^2^4^8^16^32^64^1^1
[r1]10

#5

[r1]2 / [r1]4
o3
v150
(50)[@21c8@22f+8@22f+8@21c4@21c8@22f+8@22f+8
@21c8@22f+8@22f+8@21c8@21c8@22f+8@29d4
@21c8@22f+8@22f+8@21c4@21c8@22f+8@22f+8
@21c8@22f+8@22f+8@21c8@21c8@22f+8@29d8@29d16@29d16]1
(51)[v200 @21c4 v140 @29d4]16
(50)1
(51)16
r1
@6
<a1^1^1
[r1]10

#6

[r1]2 / [r1]8
o3
v140
(60)[ @23f+8 @23f+16 @23f+16 @23f+8 @23f+8 @23f+8 @23f+8 @23f+8 @23f+8]1
(61)[@23f+16 @23f+16 @23f+8 @23f+8 @23f+8 @23f+8 @23f+8 @23f+8 @23f+8]1
(60)1
(61)1
(60)1
(61)1
(60)1
(61)1 [r1]4
(60)1
(61)1
(60)1
(61)1
(60)1
(61)1
(60)1
(61)1
[r1]10

#4

[r1]2 / [r1]7 r2^4 
@8 v180
o3d16r16d16g16
[d8<a16r16d8a16r16>d8^16<a16d8a16r16
>d8<a16r16d8a16r16>d8^16<a16d8a16r16
>c8<g16r16c8g16r16>c8^16<g16c8>e8
d8<a16r16d8a16r16>d2]2
[r1]3 r2^4
d8<g8>
(70)[<a8>a4<a8>a4<a8>g4]1
<a8>g4f4c4
(70)1
<a8>g4a4e4
(70)1
<a8>g4a4a8c8
d1^1
[r1]10
                

#amk=1
