0=00
1=01
2=02
3=03
4=04
5=05
6=06
7=07
8=08
9=09
A=0A
B=0B
C=0C
D=0D
E=0E
F=0F
G=10
H=11
I=12
J=13
K=14
L=15
M=16
N=17
O=18
P=19
Q=1A
R=1B
S=1C
T=1D
U=1E
V=1F
W=20
X=21
Y=22
Z=23
.=24
,=25
x=26
-=27
!=28
+=29
%=2A
:=78
'=85
(=70
_=6F
)=6D
 =FC
?=89
/=8b